{
  "status":"succeded/failed",
  "message":"String showing a descriptive text",
  "comments":[  {
       "id": "UUID",
       "postId": "UUID",
       "userId": "UUID",
       "Content":"string",
       "time":"Timestamp"
     }
   ]
}
